41d282f57c8146103a8937a7417238af bench-hard/002-80-12.cnf
00fed1439ff549865eeda3fd8dc634d1 bench-hard/004-80-8.cnf
06bab79cd99cf9426ea4850931696213 bench-hard/005-80-12.cnf
ad73e4a518f98d57e91cca2e97caefe5 bench-hard/007-80-12.cnf
6afc8d8e6b47f4fe6fac1ae64fcaabce bench-hard/008-80-12.cnf
cb82a0e72a3052f4af8e259b70a86c02 bench-hard/009-23-64.cnf
8ddcfa76b21ac56a597815b0be66d347 bench-hard/010-22-144.cnf
34545cfe3f950bd61f929afd99b4ed9c bench-hard/010-23-80.cnf
885f138cde2746e5c5c44e629d5d330b bench-hard/010-80-12.cnf
932387240a0c17f4c88af52c4ca151c6 bench-hard/11pipe_k.cnf
6de1d02179f743c788c6f50870f38b0e bench-hard/50bit.dimacs.cnf
201e78665ad94adee42d724bb1ba3add bench-hard/50bits_10.dimacs.cnf
67e737d3393093006dcc1e4ee6bf1ef1 bench-hard/50bits_13.dimacs.cnf
088099cd5d5aa73286009f3ba342b9ae bench-hard/50bits_14.dimacs.cnf
ee707d754d237aab8fcaf2d6a9816fd9 bench-hard/52bits_12.dimacs.cnf
8615fbcbc3c3198c083bd99593aed547 bench-hard/54bits_13.dimacs.cnf
efe8f80159bcec93cf196c78b254d006 bench-hard/56bits_12.dimacs.cnf
1157674cba68dc56776800bcb8a6858a bench-hard/58bits_10.dimacs.cnf
ca6e9336459c480be124bf99c9087427 bench-hard/58bits_11.dimacs.cnf
66e09c8b4abaf81c64b937472255fef0 bench-hard/58bits_13.dimacs.cnf
8494d69f82247bfc0356c0a4fb3622ce bench-hard/62bits_10.dimacs.cnf
59954db96a982da5cebda3fbe6571681 bench-hard/62bits_11.dimacs.cnf
707ef06c4c49c8fc23a9e27c187764c8 bench-hard/62bits_14.dimacs.cnf
0ffba0790cc881c6dd7653b4c189537f bench-hard/64bits_11.dimacs.cnf
a7b90892e041edae3bcc1bfe120bd3ec bench-hard/64bits_13.dimacs.cnf
757bcf47c1c26571d50736c2073933c9 bench-hard/66bit.dimacs.cnf
96f4f93230d0152489efe9a52af1b3d1 bench-hard/6s13-opt.cnf
218dcdb81a54b6ea88ba187c7de14cf4 bench-hard/6s130-opt.cnf
c0b159b521f0c3658885052a53cb713c bench-hard/6s151.cnf
422020b566adcb3c68f1118ddb2be84b bench-hard/6s16-opt.cnf
6cdba794f52003f045f0944466997c28 bench-hard/6s17-opt.cnf
776da55785376fd8eac6989ca812b102 bench-hard/9dlx_vliw_at_b_iq8.used-as.sat04-718.cnf
31a85166c16c74a5f2dcee32f2093a67 bench-hard/ACG-20-10p1.cnf
1abd2175db7e408628f840314b5b5c33 bench-hard/MD5-28-1.cnf
07160ca8628ec5cdff841f35849aae1b bench-hard/MD5-29-2.cnf
d074897c9ce15806a33d6cae02726a5a bench-hard/MD5-29-4.cnf
dc0f11a50add3422b91cd56dd30fa851 bench-hard/MD5-29-5.cnf
35e0e6f1be26f6f19d0241a2d21cff27 bench-hard/MD5-30-1.cnf
e683e09b7b77bb6af80be8847acdcf2c bench-hard/MD5-30-5.cnf
93c37b807980834c5c93fc49b97d8450 bench-hard/SAT_dat.k70-24_1_rule_3.cnf
274a37aa2ba35f97a64c9a4abc4e2887 bench-hard/SAT_dat.k80-24_1_rule_1.cnf
e68a67624c854e2b015ddf0a22f71316 bench-hard/SAT_dat.k85-24_1_rule_3.cnf
9bbde089d9f3bd80b1743a029be6e1a3 bench-hard/SAT_dat.k90.debugged.cnf
f2a96abeca9516c10556155b1d29fe5c bench-hard/SAT_dat.k95-24_1_rule_3.cnf
faef1c850bb82ceddc7da5a4c445dd25 bench-hard/UR-20-10p0.cnf
570f42c5067e59cf8edc01a9508f2a32 bench-hard/aes_24_4_keyfind_5.cnf
f615cc62483b5c4742449f08bd781029 bench-hard/aes_32_2_keyfind_1.cnf
278d646386a62d4f28f7fc390c5eab3e bench-hard/aes_32_3_keyfind_1.cnf
9e18e0ee8a56ea2c59fe8e682ff6c747 bench-hard/aes_64_1_keyfind_1.cnf
f5b756e322539ab0cae3b252ef1bc6e6 bench-hard/aes_id.cnf
dd2720a856eb9f549db017ff1eb72da1 bench-hard/atco_enc1_opt2_10_16.cnf
3949e169f19f231cefb3eca28cd85d2f bench-hard/atco_enc1_opt2_20_12.cnf
9afb68c320dc1b6df6ab81deded23612 bench-hard/atco_enc2_opt2_10_21.cnf
4a744b734ff6c0e5bae603b2172c4a62 bench-hard/atco_enc3_opt2_18_44.cnf
e5e596445707751f0b0e477e011b0a15 bench-hard/bob12m02-opt.cnf
780d946576ec5746b4ea9832bb01dbc5 bench-hard/dated-10-17-u.cnf
45ee13b66821e6c36f3e38be418fa121 bench-hard/dated-5-13-u.cnf
454e6f9691e77583e361c379baa2f204 bench-hard/dimacs.cnf
7a49f9ba7cd9c0bbc264ce6d5d8abf2d bench-hard/group_mulr.cnf
24798725911435c97d1fdfc6d6057704 bench-hard/gss-22-s100.cnf
6deaeb073bc9c41597efe8389ae520e0 bench-hard/hitag2-10-60-0-0x8edc44db7837bbf-65.cnf
b0660b63322faca9d4f15768c053f4ce bench-hard/hitag2-10-60-0-0xe14721bd199894a-99.cnf
b4d95f41ef4ff6f177390ee902ce8ebf bench-hard/hitag2-8-60-0-0x1eb82244d7f1c3c-47.cnf
a0ec1baa890da62d0c6df7f1e62c6af3 bench-hard/hwmcc10-timeframe-expansion-k45-pdtvisns3p02-tseitin.cnf
a8ad0173824ed9404a8c153da07c5f9c bench-hard/hwmcc10-timeframe-expansion-k50-pdtvisns3p00-tseitin.cnf
8bda46819890b537f26cd17ee4616109 bench-hard/jgiraldezlevy.2200.9086.08.40.108.cnf
4229ba58faca5e262fa3060600995332 bench-hard/jgiraldezlevy.2200.9086.08.40.109.cnf
bc8dc59f87189bd1ef85b953c7d10154 bench-hard/jgiraldezlevy.2200.9086.08.40.117.cnf
fec9d4dfc3acf7e25e4cd3952f731d21 bench-hard/jgiraldezlevy.2200.9086.08.40.135.cnf
31fed5739fcf404e8b54ae25ec198140 bench-hard/jgiraldezlevy.2200.9086.08.40.136.cnf
39548dea3f82fd01c47a187e93a4a5fa bench-hard/jgiraldezlevy.2200.9086.08.40.149.cnf
18d790a56c3d0e3c767797a3b39834bf bench-hard/jgiraldezlevy.2200.9086.08.40.158.cnf
240339fb9447897cea91573cba94c859 bench-hard/jgiraldezlevy.2200.9086.08.40.167.cnf
6dfd6e573df9855cf065690aedadb0d1 bench-hard/jgiraldezlevy.2200.9086.08.40.180.cnf
f75f1f007eeee75a0eeb1152fe4bdde8 bench-hard/jgiraldezlevy.2200.9086.08.40.188.cnf
6496d566ac073f2e5dcd3cce91a87ac7 bench-hard/jgiraldezlevy.2200.9086.08.40.2.cnf
8700fc1c1de20948c6e418b366bf9446 bench-hard/jgiraldezlevy.2200.9086.08.40.20.cnf
a9e8b6bcd3a040548e1821847d8a865a bench-hard/jgiraldezlevy.2200.9086.08.40.28.cnf
29c37f4c8044c8bc52b617ee4c6cbc40 bench-hard/jgiraldezlevy.2200.9086.08.40.33.cnf
8c1b02b2814be6f0d0b92e817cf93ebf bench-hard/jgiraldezlevy.2200.9086.08.40.35.cnf
4c74452323edf7b16f9ea6efad12e931 bench-hard/jgiraldezlevy.2200.9086.08.40.41.cnf
f03f3133a9f79df4dcdb3adcd6ca4c2d bench-hard/jgiraldezlevy.2200.9086.08.40.46.cnf
3ecb6349069565ea2f36274264484ac3 bench-hard/jgiraldezlevy.2200.9086.08.40.79.cnf
2c2ca2ea612ebd8e4c02a2eef3b56b5b bench-hard/jgiraldezlevy.2200.9086.08.40.83.cnf
e3fbdbacb0f79443302cf8eaa0f5ef60 bench-hard/jgiraldezlevy.2200.9086.08.40.93.cnf
4e3dce9cf5ba77d4b54a131c830ed3f6 bench-hard/manthey_DimacsSorterHalf_35_9.cnf
1109b566e22cc64c3b05908e2fa071e4 bench-hard/manthey_DimacsSorterHalf_36_7.cnf
de5a102522e87e02a7049965d9f8fc64 bench-hard/manthey_DimacsSorterHalf_37_3.cnf
f5383734d704af6e03d32e96d12c9c52 bench-hard/manthey_DimacsSorterHalf_37_6.cnf
534e5ea12cb94c5964eb26bc7e708dce bench-hard/manthey_DimacsSorterHalf_37_9.cnf
1109b566e22cc64c3b05908e2fa071e4 bench-hard/manthey_DimacsSorter_36_7.cnf
de5a102522e87e02a7049965d9f8fc64 bench-hard/manthey_DimacsSorter_37_3.cnf
f5383734d704af6e03d32e96d12c9c52 bench-hard/manthey_DimacsSorter_37_6.cnf
ba2ade48943151e7e1afaac6ce731d27 bench-hard/manthey_single-ordered-initialized-w48-b9.cnf
80ac7aa6de6c0720e4db20987535779c bench-hard/manthey_single-ordered-initialized-w50-b7.cnf
5b2e2178738883a628728bb1ec39f4a9 bench-hard/minandmaxor128.cnf
1f9bd0ac5df24cd20741ab03924e9fd0 bench-hard/mrpp_8x8#22_24.cnf
dbbbd4ff5f6f8d637b2d44cfaa68a883 bench-hard/mrpp_8x8#24_24.cnf
ce0d180356398dfbcfd2bbbb1cb3f9e5 bench-hard/transport-transport-city-sequential-35nodes-1000size-4degree-100mindistance-4trucks-14packages-2008seed.040-NOTKNOWN.cnf
4c4d694bb911a7a13a7cb66a99dd484c bench-hard/vmpc_33.cnf
